…
Using theaggregate_key()function, we can create the hierarchical time series with overnight trips in regions at the bottom level of the hierarchy, aggregated to states, which are aggregated to the national total. A hierarchical time series corresponding to the nested structure is created using aparent/childspecification.


```
tourism_hts <- tourism |>
  aggregate_key(State / Region, Trips = sum(Trips))
tourism_hts
#> # A tsibble: 6,800 x 4 [1Q]
#> # Key:       State, Region [85]
#>    Quarter State        Region        Trips
#>      <qtr> <chr*>       <chr*>        <dbl>
#>  1 1998 Q1 <aggregated> <aggregated> 23182.
#>  2 1998 Q2 <aggregated> <aggregated> 20323.
#>  3 1998 Q3 <aggregated> <aggregated> 19827.
#>  4 1998 Q4 <aggregated> <aggregated> 20830.
#>  5 1999 Q1 <aggregated> <aggregated> 22087.
#>  6 1999 Q2 <aggregated> <aggregated> 21458.
#>  7 1999 Q3 <aggregated> <aggregated> 19914.
#>  8 1999 Q4 <aggregated> <aggregated> 20028.
#>  9 2000 Q1 <aggregated> <aggregated> 22339.
#> 10 2000 Q2 <aggregated> <aggregated> 19941.
#> # ℹ 6,790 more rows
```
…
