…
- Tabular datais a set of values, each associated with a variable and an observation. Tabular data istidyif each value is placed in its own “cell”, each variable in its own column, and each observation in its own row.

Tabular datais a set of values, each associated with a variable and an observation. Tabular data istidyif each value is placed in its own “cell”, each variable in its own column, and each observation in its own row.


In this context, a variable refers to an attribute of all the penguins, and an observation refers to all the attributes of a single penguin.


Type the name of the data frame in the console and R will print a preview of its contents. Note that it saystibbleon top of this preview. In the tidyverse, we use special data frames calledtibblesthat you will learn more about soon.


```
penguins
#> # A tibble: 344 × 8
#>   species island    bill_length_mm bill_depth_mm flipper_length_mm
#>   <fct>   <fct>              <dbl>         <dbl>             <int>
#> 1 Adelie  Torgersen           39.1          18.7               181
#> 2 Adelie  Torgersen           39.5          17.4               186
#> 3 Adelie  Torgersen           40.3          18                 195
#> 4 Adelie  Torgersen           NA            NA                  NA
#> 5 Adelie  Torgersen           36.7          19.3               193
#> 6 Adelie  Torgersen           39.3          20.6               190
#> # ℹ 338 more rows
#> # ℹ 3 more variables: body_mass_g <int>, sex <fct>, year <int>
```
…
