…
## 7.4Reading data from multiple files


Sometimes your data is split across multiple files instead of being contained in a single file. For example, you might have sales data for multiple months, with each month’s data in a separate file:01-sales.csvfor January,02-sales.csvfor February, and03-sales.csvfor March. Withread_csv()you can read these data in at once and stack them on top of each other in a single data frame.


```
sales_files <- c("data/01-sales.csv", "data/02-sales.csv", "data/03-sales.csv")
read_csv(sales_files, id = "file")
#> # A tibble: 19 × 6
#>   file              month    year brand  item     n
#>   <chr>             <chr>   <dbl> <dbl> <dbl> <dbl>
#> 1 data/01-sales.csv January  2019     1  1234     3
#> 2 data/01-sales.csv January  2019     1  8721     9
#> 3 data/01-sales.csv January  2019     1  1822     2
#> 4 data/01-sales.csv January  2019     2  3333     1
#> 5 data/01-sales.csv January  2019     2  2156     9
#> 6 data/01-sales.csv January  2019     2  3987     6
#> # ℹ 13 more rows
```
…
