…
The strength of seasonality is defined similarly, but with respect to the detrended data rather than the seasonally adjusted data:\[
  F_S = \max\left(0, 1 - \frac{\text{Var}(R_t)}{\text{Var}(S_{t}+R_t)}\right).
\]A series with seasonal strength\(F_S\)close to 0 exhibits almost no seasonality, while a series with strong seasonality will have\(F_S\)close to 1 because Var\((R_t)\)will be much smaller than Var\((S_{t}+R_t)\).


These measures can be useful, for example, when you have a large collection of time series, and you need to find the series with the most trend or the most seasonality. These and other STL-based features are computed using thefeat_stl()function.


```
tourism |>
  features(Trips, feat_stl)
#> # A tibble: 304 × 12
#>    Region         State          Purpose trend_strength seasonal_strength_year
#>    <chr>          <chr>          <chr>            <dbl>                  <dbl>
#>  1 Adelaide       South Austral… Busine…          0.464                  0.407
#>  2 Adelaide       South Austral… Holiday          0.554                  0.619
#>  3 Adelaide       South Austral… Other            0.746                  0.202
#>  4 Adelaide       South Austral… Visiti…          0.435                  0.452
#>  5 Adelaide Hills South Austral… Busine…          0.464                  0.179
#>  6 Adelaide Hills South Austral… Holiday          0.528                  0.296
#>  7 Adelaide Hills South Austral… Other            0.593                  0.404
#>  8 Adelaide Hills South Austral… Visiti…          0.488                  0.254
#>  9 Alice Springs  Northern Terr… Busine…          0.534                  0.251
#> 10 Alice Springs  Northern Terr… Holiday          0.381                  0.832
#> # ℹ 294 more rows
#> # ℹ 7 more variables: seasonal_peak_year <dbl>, seasonal_trough_year <dbl>,
#> #   spikiness <dbl>, linearity <dbl>, curvature <dbl>, stl_e_acf1 <dbl>,
#> #   stl_e_acf10 <dbl>
```
…
