# Forecasting: Principles and Practice(3rd ed)


## 4.5Exploring Australian tourism data


All of the features included in thefeastspackage can be computed in one line like this.


```
tourism_features <- tourism |>
  features(Trips, feature_set(pkgs = "feasts"))
tourism_features
#> # A tibble: 304 × 51
#>    Region         State          Purpose trend_strength seasonal_strength_year
#>    <chr>          <chr>          <chr>            <dbl>                  <dbl>
#>  1 Adelaide       South Austral… Busine…          0.464                  0.407
#>  2 Adelaide       South Austral… Holiday          0.554                  0.619
#>  3 Adelaide       South Austral… Other            0.746                  0.202
#>  4 Adelaide       South Austral… Visiti…          0.435                  0.452
#>  5 Adelaide Hills South Austral… Busine…          0.464                  0.179
#>  6 Adelaide Hills South Austral… Holiday          0.528                  0.296
#>  7 Adelaide Hills South Austral… Other            0.593                  0.404
#>  8 Adelaide Hills South Austral… Visiti…          0.488                  0.254
#>  9 Alice Springs  Northern Terr… Busine…          0.534                  0.251
#> 10 Alice Springs  Northern Terr… Holiday          0.381                  0.832
#> # ℹ 294 more rows
#> # ℹ 46 more variables: seasonal_peak_year <dbl>, seasonal_trough_year <dbl>,
#> #   spikiness <dbl>, linearity <dbl>, curvature <dbl>, stl_e_acf1 <dbl>,
#> #   stl_e_acf10 <dbl>, acf1 <dbl>, acf10 <dbl>, diff1_acf1 <dbl>,
#> #   diff1_acf10 <dbl>, diff2_acf1 <dbl>, diff2_acf10 <dbl>,
#> #   season_acf1 <dbl>, pacf5 <dbl>, diff1_pacf5 <dbl>, diff2_pacf5 <dbl>,
#> #   season_pacf <dbl>, zero_run_mean <dbl>, nonzero_squared_cv <dbl>, …
```
…
