…
We can start to use this dataset with dplyr verbs, usingcollect()to force arrow to perform the computation and return some data. For example, this code tells us the total number of checkouts per year:


```
seattle_csv |> 
  group_by(CheckoutYear) |> 
  summarise(Checkouts = sum(Checkouts)) |> 
  arrange(CheckoutYear) |> 
  collect()
#> # A tibble: 18 × 2
#>   CheckoutYear Checkouts
#>          <int>     <int>
#> 1         2005   3798685
#> 2         2006   6599318
#> 3         2007   7126627
#> 4         2008   8438486
#> 5         2009   9135167
#> 6         2010   8608966
#> # ℹ 12 more rows
```
…
This takes about a minute to run; as we’ll see shortly this is an initial investment that pays off by making future operations much much faster.


Let’s take a look at what we just produced:


```
tibble(
  files = list.files(pq_path, recursive = TRUE),
  size_MB = file.size(file.path(pq_path, files)) / 1024^2
)
#> # A tibble: 18 × 2
#>   files                            size_MB
#>   <chr>                              <dbl>
#> 1 CheckoutYear=2005/part-0.parquet    109.
#> 2 CheckoutYear=2006/part-0.parquet    164.
#> 3 CheckoutYear=2007/part-0.parquet    178.
#> 4 CheckoutYear=2008/part-0.parquet    195.
#> 5 CheckoutYear=2009/part-0.parquet    214.
#> 6 CheckoutYear=2010/part-0.parquet    222.
#> # ℹ 12 more rows
```
…
And we can get the results by callingcollect():


```
query |> collect()
#> # A tibble: 58 × 3
#> # Groups:   CheckoutYear [5]
#>   CheckoutYear CheckoutMonth TotalCheckouts
#>          <int>         <int>          <int>
#> 1         2018             1         355101
#> 2         2018             2         309813
#> 3         2018             3         344487
#> 4         2018             4         330988
#> 5         2018             5         318049
#> 6         2018             6         341825
#> # ℹ 52 more rows
```
…
