…
    html_element("h2") |> 
    html_text2(),
  released = section |> 
    html_element("p") |> 
    html_text2() |> 
    str_remove("Released: ") |> 
    parse_date(),
  director = section |> 
    html_element(".director") |> 
    html_text2(),
  intro = section |> 
    html_element(".crawl") |> 
    html_text2()
)
#> # A tibble: 7 × 4
#>   title                   released   director         intro                  
#>   <chr>                   <date>     <chr>            <chr>                  
#> 1 The Phantom Menace      1999-05-19 George Lucas     "Turmoil has engulfed …
#> 2 Attack of the Clones    2002-05-16 George Lucas     "There is unrest in th…
#> 3 Revenge of the Sith     2005-05-19 George Lucas     "War! The Republic is …
#> 4 A New Hope              1977-05-25 George Lucas     "It is a period of civ…
#> 5 The Empire Strikes Back 1980-05-17 Irvin Kershner   "It is a dark time for…
#> 6 Return of the Jedi      1983-05-25 Richard Marquand "Luke Skywalker has re…
#> # ℹ 1 more row
```
…
For our next task we’ll tackle something a little trickier, extracting the top 250 movies from the internet movie database (IMDb). At the time we wrote this chapter, the page looked likeFigure24.1.


This data has a clear tabular structure so it’s worth starting withhtml_table():


```
url <- "https://web.archive.org/web/20220201012049/https://www.imdb.com/chart/top/"
html <- read_html(url)

table <- html |> 
  html_element("table") |> 
  html_table()
table
#> # A tibble: 250 × 5
#>   ``    `Rank & Title`                    `IMDb Rating` `Your Rating`   ``   
#>   <lgl> <chr>                                     <dbl> <chr>           <lgl>
#> 1 NA    "1.\n      The Shawshank Redempt…           9.2 "12345678910\n… NA   
#> 2 NA    "2.\n      The Godfather\n      …           9.1 "12345678910\n… NA   
#> 3 NA    "3.\n      The Godfather: Part I…           9   "12345678910\n… NA   
#> 4 NA    "4.\n      The Dark Knight\n    …           9   "12345678910\n… NA   
#> 5 NA    "5.\n      12 Angry Men\n       …           8.9 "12345678910\n… NA   
#> 6 NA    "6.\n      Schindler's List\n   …           8.9 "12345678910\n… NA   
#> # ℹ 244 more rows
```
…
    rating = `IMDb Rating`
  ) |> 
  mutate(
    rank_title_year = str_replace_all(rank_title_year, "\n +", " ")
  ) |> 
  separate_wider_regex(
    rank_title_year,
    patterns = c(
      rank = "\\d+", "\\. ",
      title = ".+", " +\\(",
      year = "\\d+", "\\)"
    )
  )
ratings
#> # A tibble: 250 × 4
#>   rank  title                    year  rating
#>   <chr> <chr>                    <chr>  <dbl>
#> 1 1     The Shawshank Redemption 1994     9.2
#> 2 2     The Godfather            1972     9.1
#> 3 3     The Godfather: Part II   1974     9  
#> 4 4     The Dark Knight          2008     9  
#> 5 5     12 Angry Men             1957     8.9
#> 6 6     Schindler's List         1993     8.9
#> # ℹ 244 more rows
```
…
  mutate(
    rating_n = html |> html_elements("td strong") |> html_attr("title")
  ) |> 
  separate_wider_regex(
    rating_n,
    patterns = c(
      "[0-9.]+ based on ",
      number = "[0-9,]+",
      " user ratings"
    )
  ) |> 
  mutate(
    number = parse_number(number)
  )
#> # A tibble: 250 × 5
#>   rank  title                    year  rating  number
#>   <chr> <chr>                    <chr>  <dbl>   <dbl>
#> 1 1     The Shawshank Redemption 1994     9.2 2536415
#> 2 2     The Godfather            1972     9.1 1745675
#> 3 3     The Godfather: Part II   1974     9   1211032
#> 4 4     The Dark Knight          2008     9   2486931
#> 5 5     12 Angry Men             1957     8.9  749563
#> 6 6     Schindler's List         1993     8.9 1295705
#> # ℹ 244 more rows
```
…
