…
Australian quarterly vacation data provides an interesting example of how these plots can reveal information. First we need to extract the relevant data from thetourismtsibble. All the usualtidyversewrangling verbs apply. To get the total visitor nights spent on Holiday by State for each quarter (i.e., ignoring Regions) we can use the following code. Note that we do not have to explicitly group by the time index as this is required in atsibble.


```
holidays <- tourism |>
  filter(Purpose == "Holiday") |>
  group_by(State) |>
  summarise(Trips = sum(Trips))
```


```
holidays
#> # A tsibble: 640 x 3 [1Q]
#> # Key:       State [8]
#>    State Quarter Trips
#>    <chr>   <qtr> <dbl>
#>  1 ACT   1998 Q1  196.
#>  2 ACT   1998 Q2  127.
#>  3 ACT   1998 Q3  111.
#>  4 ACT   1998 Q4  170.
#>  5 ACT   1999 Q1  108.
#>  6 ACT   1999 Q2  125.
#>  7 ACT   1999 Q3  178.
#>  8 ACT   1999 Q4  218.
#>  9 ACT   2000 Q1  158.
#> 10 ACT   2000 Q2  155.
#> # ℹ 630 more rows
```
…
