…
With time series forecasting, one-step forecasts may not be as relevant as multi-step forecasts. In this case, the cross-validation procedure based on a rolling forecasting origin can be modified to allow multi-step errors to be used. Suppose that we are interested in models that produce good\(4\)-step-ahead forecasts. Then the corresponding diagram is shown below.


In the following example, we compare the forecast accuracy obtained via time series cross-validation with the residual accuracy. Thestretch_tsibble()function is used to create many training sets. In this example, we start with a training set of length.init=3, and increase the size of successive training sets by.step=1.


```
# Time series cross-validation accuracy
google_2015_tr <- google_2015 |>
  stretch_tsibble(.init = 3, .step = 1) |>
  relocate(Date, Symbol, .id)
google_2015_tr
#> # A tsibble: 31,875 x 10 [1]
#> # Key:       Symbol, .id [250]
#>    Date       Symbol   .id  Open  High   Low Close Adj_Close  Volume   day
#>    <date>     <chr>  <int> <dbl> <dbl> <dbl> <dbl>     <dbl>   <dbl> <int>
#>  1 2015-01-02 GOOG       1  526.  528.  521.  522.      522. 1447600     1
#>  2 2015-01-05 GOOG       1  520.  521.  510.  511.      511. 2059800     2
#>  3 2015-01-06 GOOG       1  512.  513.  498.  499.      499. 2899900     3
#>  4 2015-01-02 GOOG       2  526.  528.  521.  522.      522. 1447600     1
#>  5 2015-01-05 GOOG       2  520.  521.  510.  511.      511. 2059800     2
#>  6 2015-01-06 GOOG       2  512.  513.  498.  499.      499. 2899900     3
#>  7 2015-01-07 GOOG       2  504.  504.  497.  498.      498. 2065100     4
#>  8 2015-01-02 GOOG       3  526.  528.  521.  522.      522. 1447600     1
#>  9 2015-01-05 GOOG       3  520.  521.  510.  511.      511. 2059800     2
#> 10 2015-01-06 GOOG       3  512.  513.  498.  499.      499. 2899900     3
#> # ℹ 31,865 more rows
```
…
