…
To estimate the model in our example, we use


```
fit <- gdppc |>
  model(trend_model = TSLM(GDP_per_capita ~ trend()))
```


This fits a linear trend model to the GDP per capita data for each combination of key variables in the tsibble. In this example, it will fit a model to each of the 263 countries in the dataset. The resulting object is a model table or a “mable”.


```
fit
#> # A mable: 263 x 2
#> # Key:     Country [263]
#>    Country             trend_model
#>    <fct>                   <model>
#>  1 Afghanistan              <TSLM>
#>  2 Albania                  <TSLM>
#>  3 Algeria                  <TSLM>
#>  4 American Samoa           <TSLM>
#>  5 Andorra                  <TSLM>
#>  6 Angola                   <TSLM>
#>  7 Antigua and Barbuda      <TSLM>
#>  8 Arab World               <TSLM>
#>  9 Argentina                <TSLM>
#> 10 Armenia                  <TSLM>
#> # ℹ 253 more rows
```
…
Once a model has been fitted, it is important to check how well it has performed on the data. There are several diagnostic tools available to check model behaviour, and also accuracy measures that allow one model to be compared against another. Sections5.8and5.9go into further details.


### Produce forecasts (forecast)


With an appropriate model specified, estimated and checked, it is time to produce the forecasts usingforecast(). The easiest way to use this function is by specifying the number of future observations to forecast. For example, forecasts for the next 10 observations can be generated usingh = 10. We can also use natural language; e.g.,h = "2 years"can be used to predict two years into the future.


In other situations, it may be more convenient to provide a dataset of future time periods to forecast. This is commonly required when your model uses additional information from the data, such as exogenous regressors. Additional data required by the model can be included in the dataset of observations to forecast.


```
fit |> forecast(h = "3 years")
#> # A fable: 789 x 5 [1Y]
#> # Key:     Country, .model [263]
#>    Country        .model       Year
#>    <fct>          <chr>       <dbl>
#>  1 Afghanistan    trend_model  2018
#>  2 Afghanistan    trend_model  2019
#>  3 Afghanistan    trend_model  2020
#>  4 Albania        trend_model  2018
#>  5 Albania        trend_model  2019
#>  6 Albania        trend_model  2020
#>  7 Algeria        trend_model  2018
#>  8 Algeria        trend_model  2019
#>  9 Algeria        trend_model  2020
#> 10 American Samoa trend_model  2018
#> # ℹ 779 more rows
#> # ℹ 2 more variables: GDP_per_capita <dist>, .mean <dbl>
```
…
