…
The “residuals” in a time series model are what is left over after fitting a model. The residuals are equal to the difference between the observations and the corresponding fitted values:\[
  e_{t} = y_{t}-\hat{y}_{t}.
\]


If a transformation has been used in the model, then it is often useful to look at residuals on the transformed scale. We call these “innovation residuals”. For example, suppose we modelled the logarithms of the data,\(w_t = \log(y_t)\). Then the innovation residuals are given by\(w_t - \hat{w}_t\)whereas the regular residuals are given by\(y_t - \hat{y}_t\). (See Section5.6for how to use transformations when forecasting.) If no transformation has been used then the innovation residuals are identical to the regular residuals, and in such cases we will simply call them “residuals”.


The fitted values and residuals from a model can be obtained using theaugment()function. In the beer production example in Section5.2, we saved the fitted models asbeer_fit. So we can simply applyaugment()to this object to compute the fitted values and residuals for all models.


```
augment(beer_fit)
#> # A tsibble: 180 x 6 [1Q]
#> # Key:       .model [3]
#>    .model Quarter  Beer .fitted .resid .innov
#>    <chr>    <qtr> <dbl>   <dbl>  <dbl>  <dbl>
#>  1 Mean   1992 Q1   443    436.   6.55   6.55
#>  2 Mean   1992 Q2   410    436. -26.4  -26.4 
#>  3 Mean   1992 Q3   420    436. -16.4  -16.4 
#>  4 Mean   1992 Q4   532    436.  95.6   95.6 
#>  5 Mean   1993 Q1   433    436.  -3.45  -3.45
#>  6 Mean   1993 Q2   421    436. -15.4  -15.4 
#>  7 Mean   1993 Q3   410    436. -26.4  -26.4 
#>  8 Mean   1993 Q4   512    436.  75.6   75.6 
#>  9 Mean   1994 Q1   449    436.  12.6   12.6 
#> 10 Mean   1994 Q2   381    436. -55.4  -55.4 
#> # ℹ 170 more rows
```
…
