…
Doing this repeatedly, we obtain many possible futures. To see some of them, we can use thegenerate()function.


```
fit <- google_2015 |>
  model(NAIVE(Close))
sim <- fit |> generate(h = 30, times = 5, bootstrap = TRUE)
sim
#> # A tsibble: 150 x 5 [1]
#> # Key:       Symbol, .model, .rep [5]
#>    Symbol .model         day .rep   .sim
#>    <chr>  <chr>        <dbl> <chr> <dbl>
#>  1 GOOG   NAIVE(Close)   253 1      756.
#>  2 GOOG   NAIVE(Close)   254 1      749.
#>  3 GOOG   NAIVE(Close)   255 1      751.
#>  4 GOOG   NAIVE(Close)   256 1      750.
#>  5 GOOG   NAIVE(Close)   257 1      754.
#>  6 GOOG   NAIVE(Close)   258 1      754.
#>  7 GOOG   NAIVE(Close)   259 1      758.
#>  8 GOOG   NAIVE(Close)   260 1      763.
#>  9 GOOG   NAIVE(Close)   261 1      759.
#> 10 GOOG   NAIVE(Close)   262 1      748.
#> # ℹ 140 more rows
```
…
Figure 5.15: Five simulated future sample paths of the Google closing stock price based on a naïve method with bootstrapped residuals.


Then we can compute prediction intervals by calculating percentiles of the future sample paths for each forecast horizon. The result is called abootstrappedprediction interval. The name “bootstrap” is a reference to pulling ourselves up by our bootstraps, because the process allows us to measure future uncertainty by only using the historical data.


This is all built into theforecast()function so you do not need to callgenerate()directly.


```
fc <- fit |> forecast(h = 30, bootstrap = TRUE)
fc
#> # A fable: 30 x 5 [1]
#> # Key:     Symbol, .model [1]
#>    Symbol .model         day        Close .mean
#>    <chr>  <chr>        <dbl>       <dist> <dbl>
#>  1 GOOG   NAIVE(Close)   253 sample[5000]  759.
#>  2 GOOG   NAIVE(Close)   254 sample[5000]  759.
#>  3 GOOG   NAIVE(Close)   255 sample[5000]  758.
#>  4 GOOG   NAIVE(Close)   256 sample[5000]  759.
#>  5 GOOG   NAIVE(Close)   257 sample[5000]  759.
#>  6 GOOG   NAIVE(Close)   258 sample[5000]  759.
#>  7 GOOG   NAIVE(Close)   259 sample[5000]  759.
#>  8 GOOG   NAIVE(Close)   260 sample[5000]  759.
#>  9 GOOG   NAIVE(Close)   261 sample[5000]  759.
#> 10 GOOG   NAIVE(Close)   262 sample[5000]  759.
#> # ℹ 20 more rows
```
…
